<?xml version="1.0" encoding="UTF-8" standalone="no"?>
<svg
   xmlns:dc="http://purl.org/dc/elements/1.1/"
   xmlns:cc="http://creativecommons.org/ns#"
   xmlns:rdf="http://www.w3.org/1999/02/22-rdf-syntax-ns#"
   xmlns:svg="http://www.w3.org/2000/svg"
   xmlns="http://www.w3.org/2000/svg"
   xmlns:sodipodi="http://sodipodi.sourceforge.net/DTD/sodipodi-0.dtd"
   xmlns:inkscape="http://www.inkscape.org/namespaces/inkscape"
   version="1.1"
   x="0px"
   y="0px"
   viewBox="0 0 90 105"
   enable-background="new 0 0 100 100"
   xml:space="preserve"
   id="svg2"
   inkscape:version="0.91 r13725"
   sodipodi:docname="grandpa1.svg"
   width="90"
   height="105"><metadata
     id="metadata28"><rdf:RDF><cc:Work
         rdf:about=""><dc:format>image/svg+xml</dc:format><dc:type
           rdf:resource="http://purl.org/dc/dcmitype/StillImage" /><dc:title></dc:title></cc:Work></rdf:RDF></metadata><defs
     id="defs26" /><sodipodi:namedview
     pagecolor="#ffffff"
     bordercolor="#666666"
     borderopacity="1"
     objecttolerance="10"
     gridtolerance="10"
     guidetolerance="10"
     inkscape:pageopacity="0"
     inkscape:pageshadow="2"
     inkscape:window-width="1011"
     inkscape:window-height="774"
     id="namedview24"
     showgrid="false"
     inkscape:zoom="1.888"
     inkscape:cx="50"
     inkscape:cy="62.5"
     inkscape:window-x="0"
     inkscape:window-y="0"
     inkscape:window-maximized="0"
     inkscape:current-layer="svg2" /><g
     id="g4"
     transform="translate(-4.2372881,2.2457626)"><path
       d="m 50.022,79.107 c -2.826,0 -5.652,-0.758 -8.458,-2.272 -0.531,-0.286 -0.729,-0.949 -0.442,-1.479 0.286,-0.531 0.95,-0.729 1.479,-0.442 4.994,2.695 9.849,2.695 14.841,0 0.532,-0.286 1.193,-0.089 1.479,0.442 0.286,0.53 0.089,1.193 -0.442,1.479 -2.805,1.515 -5.63,2.272 -8.457,2.272 z"
       id="path6"
       inkscape:connector-curvature="0" /></g><g
     id="g8"
     transform="translate(-4.2372881,2.2457626)"><path
       d="m 34.145,80.936 c -0.389,0 -0.765,-0.207 -0.962,-0.573 -0.287,-0.53 -0.088,-1.193 0.442,-1.479 4.277,-2.308 6.689,-5.937 7.375,-11.092 0.08,-0.599 0.625,-1.023 1.227,-0.938 0.598,0.079 1.018,0.628 0.938,1.226 -0.774,5.818 -3.635,10.1 -8.503,12.727 -0.165,0.087 -0.342,0.129 -0.517,0.129 z"
       id="path10"
       inkscape:connector-curvature="0" /></g><g
     id="g12"
     transform="translate(-4.2372881,2.2457626)"><path
       d="m 65.888,80.936 c -0.175,0 -0.353,-0.042 -0.518,-0.131 -4.868,-2.628 -7.729,-6.909 -8.503,-12.727 -0.08,-0.598 0.34,-1.146 0.938,-1.226 0.6,-0.081 1.147,0.34 1.226,0.938 0.687,5.155 3.099,8.783 7.376,11.092 0.531,0.286 0.729,0.949 0.442,1.479 -0.197,0.368 -0.573,0.575 -0.961,0.575 z"
       id="path14"
       inkscape:connector-curvature="0" /></g><path
     d="m 87.471712,36.894763 c 0,-7.262 -4.897,-13.17 -10.918,-13.17 -0.044,0 -0.088,0.007 -0.133,0.008 -3.332,-9.955 -11.452,-18.1180004 -31.106,-18.1180004 -19.2,0 -27.069,7.9250004 -30.277,18.1140004 -0.022,0 -0.044,-0.004 -0.066,-0.004 -6.021,0 -10.9180001,5.908 -10.9180001,13.17 0,3.897 1.434,7.556 3.867,10.042 -1.792,2.01 -2.924,4.882 -2.924,8.076 0,5.613 3.475,10.25 7.9420001,10.908 l -0.002,3.942 c 0,12.221 4.113,25.28 15.657,25.28 1.459,0 3.02,-0.027 4.648,-0.447 3.841,4.335 8.634,4.55 12.516,4.55 l 0.375,0 c 4.399,0 8.64,-0.527 12.154,-4.515 1.614,0.412 3.162,0.528 4.61,0.528 5.543,0 9.896,-3.114 12.59,-8.919 2.685,-5.789 3.085,-12.802 3.085,-16.451 l 0.006,-3.956 c 4.467,-0.658 7.941,-5.3 7.941,-10.914 0,-3.192 -1.13,-6.064 -2.919,-8.075 2.436,-2.485 3.872,-6.148 3.872,-10.049 z m -2.184,0 c 0,3.372 -1.234,6.507 -3.318,8.586 -1.014,-0.709 -2.148,-1.185 -3.358,-1.369 l 0.01,-6.537 c -0.147,-3.842 -0.55,-7.83 -1.546,-11.633 4.573,0.343 8.212,5.117 8.212,10.953 z m -79.0500001,0 c 0,-5.82 3.6200001,-10.585 8.1750001,-10.951 -0.918,3.738 -1.303,7.713 -1.457,11.669 l -0.004,6.49 c -1.226,0.178 -2.374,0.657 -3.399,1.373 -2.0830001,-2.078 -3.3150001,-5.211 -3.3150001,-8.581 z m 0.943,18.119 c 0,-4.385 2.5050001,-8.022 5.7700001,-8.691 l -0.01,17.382 c -3.26,-0.676 -5.7600001,-4.31 -5.7600001,-8.691 z m 66.3240001,30.362 c -3.064,6.607 -8.233,8.923 -15.304,6.885 -0.428,-0.125 -0.881,-0.2 -1.156,0.144 -3,3.76 -6.717,3.842 -10.913,3.842 l -0.368,0 c -4.546,0 -8.264,-0.104 -11.285,-3.877 -0.211,-0.264 -0.526,-0.298 -0.853,-0.298 -0.102,0 -0.204,0.069 -0.304,0.099 -1.68,0.487 -3.271,0.762 -4.729,0.762 -12.824,0 -13.474,-19.225 -13.474,-23.08 l 0.018,-32.201 c 0.165,-4.223 0.591,-8.354 1.632,-12.138 0.07,-0.313 0.148,-0.516 0.208,-0.718 2.927,-9.753 10.224,-16.9960004 28.336,-16.9960004 18.661,0 26.199,7.5380004 29.221,17.1510004 0.002,0.018 0.056,0.218 0.159,0.497 1.142,3.856 1.585,8.027 1.744,12.169 l -0.012,7.344 c -0.007,0.051 -0.03,0.097 -0.03,0.151 0,0.053 0.022,0.098 0.03,0.148 l -0.039,24.605 c 0.002,3.471 -0.373,10.103 -2.881,15.511 z m 5.076,-21.673 0.026,-17.373 c 3.244,0.691 5.728,4.316 5.728,8.683 0,4.38 -2.497,8.013 -5.754,8.69 z"
     id="path16"
     inkscape:connector-curvature="0" /><path
     d="m 74.481712,46.432763 c -0.283,-1.351 -1.237,-2.292 -2.552,-2.519 -6.918,-1.19 -13.938,-1.19 -20.854,0 -1.113,0.192 -1.962,0.854 -2.349,1.766 -1.993,-0.998 -4.042,-0.983 -6.035,0.061 -0.423,-0.973 -1.249,-1.642 -2.323,-1.827 -6.917,-1.19 -13.936,-1.19 -20.854,0 -1.447,0.25 -2.456,1.291 -2.57,2.651 -0.369,4.379 -0.369,4.796 0.001,8.923 0.003,0.039 0.009,0.078 0.017,0.116 0.278,1.393 1.243,2.34 2.581,2.534 3.503,0.509 7.029,0.767 10.479,0.767 3.451,0 6.925,-0.258 10.324,-0.768 1.424,-0.214 2.441,-1.245 2.591,-2.631 l 0.051,-0.48 c 0.363,-3.371 0.464,-4.323 0.141,-7 1.788,-1.188 3.473,-1.195 5.259,-0.025 -0.246,3.099 -0.207,3.863 0.118,7.487 0.004,0.039 0.01,0.079 0.018,0.117 0.279,1.392 1.244,2.339 2.58,2.533 3.503,0.509 7.027,0.767 10.478,0.767 3.451,0 6.924,-0.258 10.323,-0.768 1.424,-0.213 2.442,-1.245 2.594,-2.631 l 0.052,-0.482 c 0.425,-3.964 0.49,-4.573 -0.07,-8.591 z m -33.664,8.36 -0.051,0.48 c -0.057,0.524 -0.49,0.666 -0.744,0.704 -6.587,0.988 -13.368,0.986 -20.164,-10e-4 -0.147,-0.021 -0.589,-0.085 -0.743,-0.749 -0.351,-3.923 -0.349,-4.262 0.007,-8.479 0.041,-0.485 0.496,-0.635 0.764,-0.682 6.674,-1.148 13.44,-1.148 20.113,0 0.273,0.047 0.652,0.183 0.771,0.741 0.511,3.678 0.467,4.086 0.047,7.986 z m 31.561,-0.002 -0.052,0.48 c -0.057,0.526 -0.491,0.668 -0.745,0.706 -6.588,0.988 -13.368,0.987 -20.163,-10e-4 -0.147,-0.021 -0.588,-0.085 -0.742,-0.75 -0.353,-3.922 -0.351,-4.261 0.006,-8.479 0.04,-0.485 0.496,-0.634 0.765,-0.681 6.672,-1.148 13.438,-1.148 20.111,0 0.273,0.047 0.653,0.183 0.772,0.741 0.511,3.678 0.467,4.085 0.048,7.984 z"
     id="path18"
     inkscape:connector-curvature="0" /></svg>