<?xml version="1.0" encoding="UTF-8" standalone="no"?>
<svg
   xmlns:dc="http://purl.org/dc/elements/1.1/"
   xmlns:cc="http://creativecommons.org/ns#"
   xmlns:rdf="http://www.w3.org/1999/02/22-rdf-syntax-ns#"
   xmlns:svg="http://www.w3.org/2000/svg"
   xmlns="http://www.w3.org/2000/svg"
   xmlns:sodipodi="http://sodipodi.sourceforge.net/DTD/sodipodi-0.dtd"
   xmlns:inkscape="http://www.inkscape.org/namespaces/inkscape"
   version="1.1"
   x="0px"
   y="0px"
   viewBox="0 0 52.4 57.25"
   style="enable-background:new 0 0 52.4 45.8;"
   xml:space="preserve"
   id="svg2"
   inkscape:version="0.91 r13725"
   sodipodi:docname="noun_9728_cc.svg"><metadata
     id="metadata32"><rdf:RDF><cc:Work
         rdf:about=""><dc:format>image/svg+xml</dc:format><dc:type
           rdf:resource="http://purl.org/dc/dcmitype/StillImage" /></cc:Work></rdf:RDF></metadata><defs
     id="defs30" /><sodipodi:namedview
     pagecolor="#ffffff"
     bordercolor="#666666"
     borderopacity="1"
     objecttolerance="10"
     gridtolerance="10"
     guidetolerance="10"
     inkscape:pageopacity="0"
     inkscape:pageshadow="2"
     inkscape:window-width="1142"
     inkscape:window-height="727"
     id="namedview28"
     showgrid="false"
     inkscape:zoom="4.1222707"
     inkscape:cx="26.200001"
     inkscape:cy="28.625"
     inkscape:window-x="0"
     inkscape:window-y="0"
     inkscape:window-maximized="0"
     inkscape:current-layer="svg2" /><path
     d="m 42.742585,11.307203 c 0,0.1 0.101,0.2 0.101,0.3 0.2,0.1 0.3,0.2 0.5,0.2 1.7,0.4 3.2,1.2 4.399,2.4 1.801,1.8 2.601,3.9 2.601,6.4 0,2.1 -0.601,3.9 -1.8,5.5 -0.2,0.1 -0.301,0.1 -0.4,0.2 -0.2,0.2 -0.3,0.4 -0.3,0.5 0,0.2 0.1,0.4 0.3,0.6 0.1,0.1 0.2,0.2 0.5,0.2 l 0.1,0 c 0.101,0 0.101,0 0.101,0 1.5,0 2.3,0.7 2.3,2.2 l 0,5.7 c 0,1.5 -0.8,2.3 -2.3,2.3 l -0.2,0 c -0.3,0 -0.4,0.1 -0.5,0.2 -0.2,0.2 -0.3,0.3 -0.3,0.5 0,0.2 0.1,0.4 0.3,0.6 0.1,0.1 0.2,0.2 0.5,0.2 l 0.2,0 c 2.5,0 3.8,-1.3 3.8,-3.8 l 0,-5.7 c 0,-2 -0.8,-3.1 -2.4,-3.6 1,-1.6 1.601,-3.5 1.601,-5.6 0,-2.9 -1,-5.4 -3.101,-7.4 -1.399,-1.5 -3,-2.4 -4.8,-2.7 -0.1,-0.1 -0.1,-0.2 -0.2,-0.2 -2,-2.0999996 -4.5,-3.0999996 -7.399,-3.0999996 -1,0 -2,0.1 -2.9,0.4 -0.2,0 -0.3,0.1 -0.399,0.4 -0.2,0.1 -0.2,0.3 -0.101,0.5 0.101,0.2 0.2,0.3 0.3,0.5 0.2,0.1 0.4,0.1 0.601,0.1 0.8,-0.3 1.7,-0.4 2.5,-0.4 2.497,0 4.697,0.9 6.396,2.5999996 z"
     id="path4"
     inkscape:connector-curvature="0" /><path
     d="m 45.142585,28.807203 c 0,-2.2 -0.9,-4.1 -2.4,-5.7 -1.6,-1.6 -3.5,-2.4 -5.699,-2.4 -2.301,0 -4.2,0.8 -5.7,2.4 l -0.101,0 c -1.399,1.4 -2.1,2.9 -2.3,4.7 l -4.6,0 c -0.2,-1.8 -1,-3.3 -2.3,-4.7 -1.601,-1.6 -3.5,-2.4 -5.7,-2.4 -2.2,0 -4.2,0.8 -5.7,2.3 l -0.1,0.1 c -1.4990003,1.6 -2.3000003,3.5 -2.3000003,5.7 0,2.2 0.801,4.2 2.4000003,5.7 1.5,1.7 3.5,2.4 5.7,2.4 2.2,0 4.1,-0.7 5.7,-2.4 1.5,-1.4 2.3,-3.2 2.399,-5.2 l 4.5,0 c 0.101,2 0.9,3.8 2.4,5.2 l -0.099,0 c 1.5,1.7 3.5,2.4 5.801,2.4 2.199,0 4.199,-0.7 5.699,-2.4 1.5,-1.5 2.4,-3.5 2.4,-5.7 z m -3.599,-4.5 -0.101,0 c 1.3,1.3 1.8,2.7 1.8,4.5 0,1.7 -0.5,3.2 -1.699,4.5 l -0.101,0 c -1.2,1.2 -2.7,1.9 -4.399,1.9 -1.801,0 -3.301,-0.7 -4.5,-1.9 -1.2,-1.3 -1.9,-2.8 -1.9,-4.5 0,-1.8 0.7,-3.2 1.9,-4.5 1.199,-1.2 2.699,-1.8 4.5,-1.8 1.699,0 3.199,0.6 4.5,1.8 z m -20.7,0 c 1.2,1.3 1.8,2.7 1.8,4.5 0,1.7 -0.6,3.2 -1.8,4.4 l -0.101,0.1 c -1.199,1.2 -2.699,1.9 -4.399,1.9 -1.8,0 -3.2,-0.7 -4.5,-1.9 -1.2,-1.3 -1.8,-2.8 -1.8,-4.5 0,-1.7 0.6,-3.2 1.8,-4.5 1.3,-1.2 2.8,-1.8 4.5,-1.8 1.7,0 3.2,0.6 4.5,1.8 z"
     id="path6"
     inkscape:connector-curvature="0" /><path
     d="m 37.742585,28.007203 c -0.199,-0.2 -0.5,-0.3 -0.699,-0.3 -0.301,0 -0.601,0.1 -0.801,0.3 -0.199,0.2 -0.3,0.5 -0.3,0.8 0,0.2 0.101,0.5 0.3,0.7 0.2,0.2 0.5,0.3 0.801,0.3 0.199,0 0.5,-0.1 0.699,-0.3 0.2,-0.2 0.301,-0.5 0.301,-0.7 0,-0.3 -0.101,-0.6 -0.301,-0.8 z"
     id="path8"
     inkscape:connector-curvature="0" /><path
     d="m 17.343585,28.807203 c 0,-0.3 -0.2,-0.6 -0.3,-0.8 -0.2,-0.2 -0.5,-0.3 -0.7,-0.3 -0.3,0 -0.601,0.1 -0.8,0.3 -0.2,0.2 -0.301,0.5 -0.301,0.8 0,0.2 0.101,0.5 0.301,0.7 0.199,0.2 0.5,0.3 0.8,0.3 0.2,0 0.5,-0.1 0.7,-0.3 0.099,-0.2 0.3,-0.5 0.3,-0.7 z"
     id="path10"
     inkscape:connector-curvature="0" /><path
     d="m 20.343585,8.0072034 c 0,-0.3 -0.2,-0.4 -0.4,-0.4 -0.899,-0.3 -1.899,-0.4 -2.899,-0.4 -2.9,0 -5.4,1 -7.4000003,3.0999996 -0.1,0 -0.1,0.1 -0.1,0.2 -1.9,0.3 -3.5,1.2 -4.9,2.7 -2,2 -3.1,4.5 -3.1,7.4 0,2.1 0.6,3.9 1.6,5.6 -2,0.2 -2.89999995,1.5 -2.89999995,3.6 l 0,5.7 c -0.002,2.5 1.29899995,3.8 3.79899995,3.8 l 1.199,0 c 0.2,0 0.4,-0.1 0.5,-0.2 0.2,-0.2 0.301,-0.4 0.301,-0.6 0,-0.2 -0.101,-0.3 -0.301,-0.5 -0.1,-0.1 -0.3,-0.2 -0.5,-0.2 l -1.199,0 c -1.5,0 -2.301,-0.8 -2.301,-2.3 l 0,-5.7 c 0,-1.5 0.801,-2.2 2.301,-2.2 l 1.199,0 c 0.2,0 0.4,-0.1 0.5,-0.2 0.2,-0.2 0.301,-0.4 0.301,-0.6 0,-0.1 -0.101,-0.3 -0.301,-0.5 -0.1,-0.1 -0.3,-0.2 -0.5,-0.2 l -0.3,0 c -1.3,-1.6 -1.899,-3.4 -1.899,-5.5 0,-2.5 0.899,-4.6 2.699,-6.4 1.2,-1.2 2.7,-2 4.3010003,-2.4 0.199,0 0.399,-0.1 0.5,-0.2 0.1,-0.1 0.1,-0.2 0.1,-0.3 1.8,-1.6999996 3.9,-2.5999996 6.4,-2.5999996 0.8,0 1.699,0.1 2.5,0.4 0.199,0 0.399,0 0.6,-0.1 0.2,-0.2 0.3,-0.3 0.4,-0.5 0,-0.2 0,-0.4 -0.2,-0.5 z"
     id="path12"
     inkscape:connector-curvature="0" /><path
     d="m 18.543585,43.807203 c 0,-0.3 0,-0.4 -0.2,-0.5 -0.2,-0.2 -0.3,-0.3 -0.5,-0.3 -0.2,0 -0.4,0.1 -0.5,0.3 -0.2,0.1 -0.3,0.2 -0.3,0.5 0,1 0.199,1.8 0.6,2.3 l 0.1,0 c 0.601,1 1.7,1.4 3.101,1.4 l 11.6,0 c 2.601,0 3.8,-1.2 3.8,-3.7 0,-0.3 0,-0.4 -0.199,-0.5 -0.2,-0.2 -0.301,-0.3 -0.5,-0.3 -0.301,0 -0.4,0.1 -0.5,0.3 -0.2,0.1 -0.301,0.2 -0.301,0.5 0,1.5 -0.699,2.2 -2.3,2.2 l -11.6,0 c -0.8,0 -1.5,-0.2 -2,-0.8 -0.202,-0.4 -0.301,-0.8 -0.301,-1.4 z"
     id="path14"
     inkscape:connector-curvature="0" /><path
     d="m 35.043585,15.807203 c 0.099,-0.1 0.199,-0.1 0.199,-0.2 0.101,-0.2 0.101,-0.3 0.101,-0.4 -0.101,-0.1 -0.101,-0.2 -0.201,-0.3 -2.7,-1.6 -5.5,-2.3 -8.5,-2.3 -3.1,0 -5.9,0.7 -8.5,2.3 -0.1,0.1 -0.1,0.2 -0.1,0.3 -0.101,0.1 -0.101,0.2 0,0.4 0.1,0.1 0.1,0.1 0.3,0.2 0.1,0 0.2,0 0.3,-0.1 2.5,-1.4 5.1,-2.1 8,-2.1 2.8,0 5.5,0.7 8,2.1 0.1,0.1 0.201,0.1 0.401,0.1 z"
     id="path16"
     inkscape:connector-curvature="0" /><path
     d="m 22.543585,17.807203 c 0.1,0 0.199,0 0.3,-0.1 1.3,-0.7 2.7,-1.1 4,-1 1.2,0 2.399,0.4 3.6,1 0.2,0.1 0.2,0.1 0.4,0.1 0.2,-0.1 0.3,-0.2 0.3,-0.2 0,-0.2 0.1,-0.3 0,-0.5 0,-0.1 -0.1,-0.2 -0.2,-0.3 -1.3,-0.7 -2.7,-1.1 -4.1,-1.1 l 0,0 c -1.5,-0.1 -3,0.4 -4.5,1.1 0,0.1 -0.101,0.2 -0.2,0.3 0,0.2 0,0.3 0,0.5 0.099,0 0.2,0.1 0.4,0.2 z"
     id="path18"
     inkscape:connector-curvature="0" /><g
     id="g20"
     transform="translate(0.24258475,6.3072034)"><path
       d="M 41.9,7.4 C 41,6.4 40.1,5.5 39.2,4.8 35.4,1.6 31.1,0 26.2,0 21.4,0 17.1,1.6 13.3,4.8 c -1,0.7 -1.9,1.6 -2.7,2.6 -1.9,2.1 -3.3,4.1 -4.101,6 -1.1,2 -1.8,4.3 -2.1,6.8 l 0,0 L 4.101,42 c 0,1.1 0.2,1.9 0.7,2.4 l 0,0 c 0.7,0.9 1.7,1.4 3.1,1.4 l 36.6,0 c 2.601,0 3.8,-1.3 3.8,-3.8 l 0,-6.3 c 0,-1.3 0,-2.7 0,-4.1 -0.1,-6.9 -0.1,-10.7 -0.2,-11.5 l 0,0.1 c 0,-0.1 0,-0.1 0,-0.1 C 47.7,17.7 47,15.4 46,13.3 45.101,11.5 43.7,9.5 41.8,7.4 l 0.1,0 z M 38.3,5.9 c 0.8,0.8 1.6,1.6 2.5,2.5 1.6,2 3,3.9 3.9,5.6 0.9,1.9 1.5,4 1.9,6.4 l 0,0.1 c 0.1,0.3 0.1,4 0.2,11.1 0,1.4 0,2.8 0,4.1 l 0,6.3 c 0,1.5 -0.7,2.3 -2.3,2.3 l -36.6,0 C 7.1,44.3 6.4,44 6,43.5 5.7,43.2 5.601,42.7 5.601,42 l 0.3,-21.6 C 6.2,18 6.8,15.9 7.8,14 8.6,12.3 10,10.4 11.7,8.4 12.5,7.5 13.4,6.7 14.2,5.9 17.7,3 21.7,1.5 26.2,1.5 c 4.5,0 8.6,1.5 12.1,4.4 z"
       id="path22"
       inkscape:connector-curvature="0" /></g></svg>